Flip-flops/Flip-flops.sim/sim_1/behav/xsim/simulate.log
Time resolution is 1 ps
                   0J = 0, K = 0, clk = 0, Q = x
                   5J = 0, K = 0, clk = 1, Q = x
                  10J = 0, K = 0, clk = 0, Q = x
                  15J = 0, K = 0, clk = 1, Q = x
                  20J = 1, K = 0, clk = 0, Q = x
                  25J = 1, K = 0, clk = 1, Q = 1
                  30J = 1, K = 0, clk = 0, Q = 1
                  35J = 1, K = 0, clk = 1, Q = 1
                  40J = 0, K = 0, clk = 0, Q = 1
                  45J = 0, K = 0, clk = 1, Q = 1
                  50J = 0, K = 0, clk = 0, Q = 1
                  55J = 0, K = 0, clk = 1, Q = 1
                  60J = 0, K = 1, clk = 0, Q = 1
                  65J = 0, K = 1, clk = 1, Q = 0
                  70J = 0, K = 1, clk = 0, Q = 0
                  75J = 0, K = 1, clk = 1, Q = 0
                  80J = 0, K = 0, clk = 0, Q = 0
                  85J = 0, K = 0, clk = 1, Q = 0
                  90J = 0, K = 0, clk = 0, Q = 0
                  95J = 0, K = 0, clk = 1, Q = 0
                 100J = 1, K = 1, clk = 0, Q = 0
                 105J = 1, K = 1, clk = 1, Q = 1
                 110J = 1, K = 1, clk = 0, Q = 1
                 115J = 1, K = 1, clk = 1, Q = 0
                 120J = 1, K = 1, clk = 0, Q = 0
                 125J = 1, K = 1, clk = 1, Q = 1
                 130J = 1, K = 1, clk = 0, Q = 1
                 135J = 1, K = 1, clk = 1, Q = 0
                 140J = 1, K = 0, clk = 0, Q = 0
                 145J = 1, K = 0, clk = 1, Q = 1
                 150J = 1, K = 0, clk = 0, Q = 1
                 155J = 1, K = 0, clk = 1, Q = 1
                 160J = 0, K = 1, clk = 0, Q = 1
                 165J = 0, K = 1, clk = 1, Q = 0
                 170J = 0, K = 1, clk = 0, Q = 0
                 175J = 0, K = 1, clk = 1, Q = 0
                 180J = 0, K = 0, clk = 0, Q = 0
                 185J = 0, K = 0, clk = 1, Q = 0
                 190J = 0, K = 0, clk = 0, Q = 0
                 195J = 0, K = 0, clk = 1, Q = 0
                 200J = 0, K = 0, clk = 0, Q = 0
                 205J = 0, K = 0, clk = 1, Q = 0
                 210J = 0, K = 0, clk = 0, Q = 0
                 215J = 0, K = 0, clk = 1, Q = 0
                 220J = 0, K = 0, clk = 0, Q = 0
                 225J = 0, K = 0, clk = 1, Q = 0
                 230J = 0, K = 0, clk = 0, Q = 0
                 235J = 0, K = 0, clk = 1, Q = 0
                 240J = 0, K = 0, clk = 0, Q = 0
                 245J = 0, K = 0, clk = 1, Q = 0
                 250J = 0, K = 0, clk = 0, Q = 0
                 255J = 0, K = 0, clk = 1, Q = 0
                 260J = 0, K = 0, clk = 0, Q = 0
                 265J = 0, K = 0, clk = 1, Q = 0
                 270J = 0, K = 0, clk = 0, Q = 0
                 275J = 0, K = 0, clk = 1, Q = 0
                 280J = 0, K = 0, clk = 0, Q = 0
                 285J = 0, K = 0, clk = 1, Q = 0
                 290J = 0, K = 0, clk = 0, Q = 0
                 295J = 0, K = 0, clk = 1, Q = 0
                 300J = 0, K = 0, clk = 0, Q = 0
                 305J = 0, K = 0, clk = 1, Q = 0
                 310J = 0, K = 0, clk = 0, Q = 0
                 315J = 0, K = 0, clk = 1, Q = 0
                 320J = 0, K = 0, clk = 0, Q = 0
                 325J = 0, K = 0, clk = 1, Q = 0
                 330J = 0, K = 0, clk = 0, Q = 0
                 335J = 0, K = 0, clk = 1, Q = 0
                 340J = 0, K = 0, clk = 0, Q = 0
                 345J = 0, K = 0, clk = 1, Q = 0
                 350J = 0, K = 0, clk = 0, Q = 0
                 355J = 0, K = 0, clk = 1, Q = 0
                 360J = 0, K = 0, clk = 0, Q = 0
                 365J = 0, K = 0, clk = 1, Q = 0
                 370J = 0, K = 0, clk = 0, Q = 0
                 375J = 0, K = 0, clk = 1, Q = 0
                 380J = 0, K = 0, clk = 0, Q = 0
                 385J = 0, K = 0, clk = 1, Q = 0
                 390J = 0, K = 0, clk = 0, Q = 0
                 395J = 0, K = 0, clk = 1, Q = 0
                 400J = 0, K = 0, clk = 0, Q = 0
                 405J = 0, K = 0, clk = 1, Q = 0
                 410J = 0, K = 0, clk = 0, Q = 0
                 415J = 0, K = 0, clk = 1, Q = 0
                 420J = 0, K = 0, clk = 0, Q = 0
                 425J = 0, K = 0, clk = 1, Q = 0
                 430J = 0, K = 0, clk = 0, Q = 0
                 435J = 0, K = 0, clk = 1, Q = 0
                 440J = 0, K = 0, clk = 0, Q = 0
                 445J = 0, K = 0, clk = 1, Q = 0
                 450J = 0, K = 0, clk = 0, Q = 0
                 455J = 0, K = 0, clk = 1, Q = 0
                 460J = 0, K = 0, clk = 0, Q = 0
                 465J = 0, K = 0, clk = 1, Q = 0
                 470J = 0, K = 0, clk = 0, Q = 0
                 475J = 0, K = 0, clk = 1, Q = 0
                 480J = 0, K = 0, clk = 0, Q = 0
                 485J = 0, K = 0, clk = 1, Q = 0
                 490J = 0, K = 0, clk = 0, Q = 0
                 495J = 0, K = 0, clk = 1, Q = 0
                 500J = 0, K = 0, clk = 0, Q = 0
                 505J = 0, K = 0, clk = 1, Q = 0
                 510J = 0, K = 0, clk = 0, Q = 0
                 515J = 0, K = 0, clk = 1, Q = 0
                 520J = 0, K = 0, clk = 0, Q = 0
                 525J = 0, K = 0, clk = 1, Q = 0
                 530J = 0, K = 0, clk = 0, Q = 0
                 535J = 0, K = 0, clk = 1, Q = 0
                 540J = 0, K = 0, clk = 0, Q = 0
                 545J = 0, K = 0, clk = 1, Q = 0
                 550J = 0, K = 0, clk = 0, Q = 0
                 555J = 0, K = 0, clk = 1, Q = 0
                 560J = 0, K = 0, clk = 0, Q = 0
                 565J = 0, K = 0, clk = 1, Q = 0
                 570J = 0, K = 0, clk = 0, Q = 0
                 575J = 0, K = 0, clk = 1, Q = 0
                 580J = 0, K = 0, clk = 0, Q = 0
                 585J = 0, K = 0, clk = 1, Q = 0
                 590J = 0, K = 0, clk = 0, Q = 0
                 595J = 0, K = 0, clk = 1, Q = 0
                 600J = 0, K = 0, clk = 0, Q = 0
                 605J = 0, K = 0, clk = 1, Q = 0
                 610J = 0, K = 0, clk = 0, Q = 0
                 615J = 0, K = 0, clk = 1, Q = 0
                 620J = 0, K = 0, clk = 0, Q = 0
                 625J = 0, K = 0, clk = 1, Q = 0
                 630J = 0, K = 0, clk = 0, Q = 0
                 635J = 0, K = 0, clk = 1, Q = 0
                 640J = 0, K = 0, clk = 0, Q = 0
                 645J = 0, K = 0, clk = 1, Q = 0
                 650J = 0, K = 0, clk = 0, Q = 0
                 655J = 0, K = 0, clk = 1, Q = 0
                 660J = 0, K = 0, clk = 0, Q = 0
                 665J = 0, K = 0, clk = 1, Q = 0
                 670J = 0, K = 0, clk = 0, Q = 0
                 675J = 0, K = 0, clk = 1, Q = 0
                 680J = 0, K = 0, clk = 0, Q = 0
                 685J = 0, K = 0, clk = 1, Q = 0
                 690J = 0, K = 0, clk = 0, Q = 0
                 695J = 0, K = 0, clk = 1, Q = 0
                 700J = 0, K = 0, clk = 0, Q = 0
                 705J = 0, K = 0, clk = 1, Q = 0
                 710J = 0, K = 0, clk = 0, Q = 0
                 715J = 0, K = 0, clk = 1, Q = 0
                 720J = 0, K = 0, clk = 0, Q = 0
                 725J = 0, K = 0, clk = 1, Q = 0
                 730J = 0, K = 0, clk = 0, Q = 0
                 735J = 0, K = 0, clk = 1, Q = 0
                 740J = 0, K = 0, clk = 0, Q = 0
                 745J = 0, K = 0, clk = 1, Q = 0
                 750J = 0, K = 0, clk = 0, Q = 0
                 755J = 0, K = 0, clk = 1, Q = 0
                 760J = 0, K = 0, clk = 0, Q = 0
                 765J = 0, K = 0, clk = 1, Q = 0
                 770J = 0, K = 0, clk = 0, Q = 0
                 775J = 0, K = 0, clk = 1, Q = 0
                 780J = 0, K = 0, clk = 0, Q = 0
                 785J = 0, K = 0, clk = 1, Q = 0
                 790J = 0, K = 0, clk = 0, Q = 0
                 795J = 0, K = 0, clk = 1, Q = 0
                 800J = 0, K = 0, clk = 0, Q = 0
                 805J = 0, K = 0, clk = 1, Q = 0
                 810J = 0, K = 0, clk = 0, Q = 0
                 815J = 0, K = 0, clk = 1, Q = 0
                 820J = 0, K = 0, clk = 0, Q = 0
                 825J = 0, K = 0, clk = 1, Q = 0
                 830J = 0, K = 0, clk = 0, Q = 0
                 835J = 0, K = 0, clk = 1, Q = 0
                 840J = 0, K = 0, clk = 0, Q = 0
                 845J = 0, K = 0, clk = 1, Q = 0
                 850J = 0, K = 0, clk = 0, Q = 0
                 855J = 0, K = 0, clk = 1, Q = 0
                 860J = 0, K = 0, clk = 0, Q = 0
                 865J = 0, K = 0, clk = 1, Q = 0
                 870J = 0, K = 0, clk = 0, Q = 0
                 875J = 0, K = 0, clk = 1, Q = 0
                 880J = 0, K = 0, clk = 0, Q = 0
                 885J = 0, K = 0, clk = 1, Q = 0
                 890J = 0, K = 0, clk = 0, Q = 0
                 895J = 0, K = 0, clk = 1, Q = 0
                 900J = 0, K = 0, clk = 0, Q = 0
                 905J = 0, K = 0, clk = 1, Q = 0
                 910J = 0, K = 0, clk = 0, Q = 0
                 915J = 0, K = 0, clk = 1, Q = 0
                 920J = 0, K = 0, clk = 0, Q = 0
                 925J = 0, K = 0, clk = 1, Q = 0
                 930J = 0, K = 0, clk = 0, Q = 0
                 935J = 0, K = 0, clk = 1, Q = 0
                 940J = 0, K = 0, clk = 0, Q = 0
                 945J = 0, K = 0, clk = 1, Q = 0
                 950J = 0, K = 0, clk = 0, Q = 0
                 955J = 0, K = 0, clk = 1, Q = 0
                 960J = 0, K = 0, clk = 0, Q = 0
                 965J = 0, K = 0, clk = 1, Q = 0
                 970J = 0, K = 0, clk = 0, Q = 0
                 975J = 0, K = 0, clk = 1, Q = 0
                 980J = 0, K = 0, clk = 0, Q = 0
                 985J = 0, K = 0, clk = 1, Q = 0
                 990J = 0, K = 0, clk = 0, Q = 0
                 995J = 0, K = 0, clk = 1, Q = 0
                1000J = 0, K = 0, clk = 0, Q = 0
