Flip-flop/2level_comb/2level_comb.sim/sim_1/behav/xsim/simulate.log
Time resolution is 1 ps
                   0a = 0, b = 0, c = 0, d = 0, f = 1
                  10a = 0, b = 0, c = 0, d = 1, f = 1
                  20a = 0, b = 0, c = 1, d = 0, f = 1
                  30a = 0, b = 0, c = 1, d = 1, f = 1
                  40a = 0, b = 1, c = 0, d = 0, f = 1
                  50a = 0, b = 1, c = 0, d = 1, f = 1
                  60a = 0, b = 1, c = 1, d = 0, f = 1
                  70a = 0, b = 1, c = 1, d = 1, f = 1
                  80a = 1, b = 0, c = 0, d = 0, f = 1
                  90a = 1, b = 0, c = 0, d = 1, f = 1
                 100a = 1, b = 0, c = 1, d = 0, f = 1
                 110a = 1, b = 0, c = 1, d = 1, f = 1
                 120a = 1, b = 1, c = 0, d = 0, f = 0
                 130a = 1, b = 1, c = 0, d = 1, f = 1
                 140a = 1, b = 1, c = 1, d = 0, f = 1
                 150a = 1, b = 1, c = 1, d = 1, f = 1
$finish called at time : 160 ns : File "D:/Verilog Projects/2level_comb/2level_comb.srcs/sim_1/new/Circuit_test.v" Line 29
